model\Client.class
db\ClientDAO.class
model\Promotion.class
db\DatabaseConnection.class
db\PromotionDAO.class
service\DeliveryServiceService.class
db\TransactionDAO.class
service\PromotionService.class
service\ShopItemService.class
db\ShopItemDAO.class
db\GenericDAO.class
model\DeliveryService.class
model\Entity.class
service\ClientService.class
model\Transaction.class
db\DeliveryServiceDAO.class
service\TransactionService.class
model\ShopItem.class
