service\ShopItem\ShopItemRemoveItemServiceTest.class
service\Client\ClientServiceUpdateInfoTest.class
service\ShopItem\ShopItemStockUpServiceTest.class
service\Client\ClientServiceRegisterTest.class
service\DeliveryService\DeliveryServiceUpdateInfoServiceTest.class
service\ShopItem\ShopItemBuyServiceTest.class
service\Transaction\TransactionCompleteTransactionServiceTest.class
service\DeliveryService\DeliveryServiceRegisterServiceTest.class
service\ShopItem\ShopItemCheckIfPopularServiceTest.class
service\DeliveryService\DeliveryServiceDeleteDeliveryServiceServiceTest.class
service\ShopItem\ShopItemGetTrendingIndexServiceTest.class
service\ShopItem\ShopItemPostItemServiceTest.class
service\Client\ClientServiceDeleteUserTest.class
service\Transaction\TransactionCalculatePriceServiceTest.class
service\Transaction\TransactionGetRecentTransactionServiceTest.class
JunitTestSuite.class
service\Client\ClientServiceLoginTest.class
